\relax 
\@writefile{toc}{\contentsline {subsubsection}{Completeness degree}{1}}
\@writefile{toc}{\contentsline {subsubsection}{Accuracy degree}{1}}
\@writefile{lof}{\contentsline {figure}{\numberline {1}{\ignorespaces PFDProcess log, with FaultInjector lines interspersed\relax }}{2}}
\@writefile{lof}{\contentsline {figure}{\numberline {2}{\ignorespaces ELEProcess with FaultInjector lines, showing when leader beliefs change\relax }}{2}}
\@writefile{lof}{\contentsline {figure}{\numberline {3}{\ignorespaces SFDProcess running normally, all determining the correct values. Were a FaultInjector to disable a process, the output remains the same, as the two remaining processes still work, and the incorrect process will use only its own value\relax }}{3}}
\@writefile{lof}{\contentsline {figure}{\numberline {4}{\ignorespaces ESFDProcess running normally, all determining the correct values. Added debug message to make the iterations clearer.\relax }}{4}}
\@writefile{lof}{\contentsline {figure}{\numberline {5}{\ignorespaces ESFDProcess running with process 1 disabled, the remaining three determining the correct values. Debug messages to make the iterations clearer.\relax }}{4}}
\@writefile{lol}{\contentsline {lstlisting}{\numberline {1}Weak completeness augmented to strong completeness}{6}}
